{
  "name": "Room",
  "plural": "Room",
  "base": "PersistedModel",
  "idInjection": true,
  "options": {
    "validateUpsert": true
  },
  "properties": {
    "Name": {
      "type": "string",
      "required": true
    },
    "RoomNumber": {
      "type": "number",
      "required": true
    }
  },
  "validations": [],
  "relations": {},
  "acls": [],
  "methods": {}
}
